<?xml version="1.0" encoding="utf-8"?>
<!-- Generator: Adobe Illustrator 16.0.0, SVG Export Plug-In . SVG Version: 6.00 Build 0)  -->
<!DOCTYPE svg PUBLIC "-//W3C//DTD SVG 1.1//EN" "http://www.w3.org/Graphics/SVG/1.1/DTD/svg11.dtd">
<svg version="1.1" id="Ebene_1" xmlns="http://www.w3.org/2000/svg" xmlns:xlink="http://www.w3.org/1999/xlink" x="0px" y="0px"
	 width="150px" height="150px" viewBox="0 0 150 150" enable-background="new 0 0 150 150" xml:space="preserve">
<g>
	<path fill="#808080" d="M76.08,65.366c0.428,0.725,0.788,1.589,1.092,2.575c0.183,0.038,0.525,0.08,1.028,0.145
		c0.502,0.048,1.029,0.133,1.56,0.24c0.532,0.096,1.007,0.208,1.429,0.309c0.418,0.123,0.635,0.251,0.635,0.4v4.991
		c0,0.177-0.217,0.342-0.635,0.448c-0.422,0.134-0.896,0.229-1.429,0.331c-0.53,0.091-1.058,0.159-1.583,0.197
		c-0.525,0.037-0.862,0.074-1.005,0.111c-0.264,0.801-0.606,1.627-1.04,2.47c0.434,0.57,0.846,1.136,1.246,1.69
		c0.404,0.549,0.856,1.099,1.359,1.643l0.057,0.271c0,0.112-0.193,0.396-0.571,0.843c-0.388,0.453-0.833,0.923-1.337,1.413
		c-0.503,0.507-0.978,0.934-1.406,1.323c-0.445,0.384-0.719,0.57-0.834,0.57c-0.035,0-0.229-0.128-0.57-0.384
		c-0.35-0.251-0.732-0.533-1.149-0.858c-0.423-0.331-0.817-0.624-1.177-0.912c-0.373-0.277-0.601-0.47-0.715-0.565
		c-0.84,0.438-1.658,0.778-2.469,1.04c0,0.191-0.029,0.533-0.08,1.034c-0.057,0.502-0.131,1.035-0.223,1.584
		c-0.097,0.555-0.211,1.04-0.349,1.456c-0.143,0.422-0.291,0.629-0.435,0.629h-4.988c-0.154,0-0.291-0.207-0.429-0.629
		c-0.144-0.416-0.253-0.901-0.332-1.456c-0.068-0.549-0.136-1.082-0.193-1.573c-0.058-0.49-0.08-0.837-0.08-1.045
		c-0.847-0.225-1.669-0.57-2.47-1.04c-0.582,0.438-1.154,0.864-1.725,1.312c-0.561,0.438-1.127,0.886-1.664,1.35l-0.279,0.059
		c-0.068,0-0.331-0.187-0.776-0.57c-0.435-0.39-0.892-0.816-1.366-1.323c-0.48-0.49-0.908-0.96-1.285-1.413
		c-0.391-0.447-0.572-0.73-0.572-0.843c0-0.031,0.114-0.229,0.359-0.57c0.24-0.336,0.52-0.72,0.822-1.12
		c0.315-0.405,0.601-0.789,0.869-1.146c0.275-0.368,0.441-0.603,0.521-0.72c-0.435-0.789-0.8-1.68-1.097-2.629
		c-0.184-0.038-0.532-0.08-1.035-0.145c-0.502-0.053-1.018-0.122-1.555-0.187c-0.53-0.08-1.01-0.187-1.428-0.299
		c-0.422-0.128-0.623-0.256-0.623-0.41v-5.034c0-0.149,0.201-0.305,0.623-0.438c0.418-0.145,0.908-0.251,1.457-0.325
		c0.549-0.069,1.086-0.145,1.588-0.192c0.504-0.059,0.848-0.091,1.029-0.091c0.229-0.912,0.57-1.728,1.04-2.458
		c-0.435-0.576-0.856-1.157-1.28-1.729c-0.412-0.564-0.852-1.125-1.291-1.669l-0.115-0.271c0-0.112,0.184-0.39,0.566-0.827
		c0.389-0.442,0.828-0.901,1.32-1.402c0.49-0.496,0.96-0.938,1.405-1.317c0.435-0.373,0.71-0.581,0.823-0.581
		c0.039,0,0.229,0.128,0.571,0.373c0.343,0.24,0.731,0.528,1.155,0.854c0.41,0.325,0.816,0.646,1.199,0.96
		c0.389,0.293,0.617,0.49,0.686,0.565c0.807-0.47,1.646-0.806,2.526-1.035c0-0.149,0.022-0.507,0.08-1.029
		c0.058-0.549,0.125-1.088,0.193-1.621c0.079-0.538,0.177-1.019,0.298-1.456c0.119-0.438,0.273-0.655,0.463-0.655h4.988
		c0.144,0,0.292,0.218,0.435,0.655c0.138,0.438,0.239,0.918,0.319,1.456c0.075,0.533,0.138,1.072,0.195,1.621
		c0.057,0.522,0.103,0.88,0.137,1.029c0.846,0.229,1.646,0.555,2.411,0.971c0.584-0.416,1.167-0.848,1.749-1.259
		c0.595-0.432,1.16-0.863,1.697-1.307l0.223-0.122c0.08,0,0.332,0.208,0.771,0.607c0.44,0.4,0.902,0.843,1.389,1.323
		c0.486,0.469,0.926,0.928,1.326,1.37c0.405,0.438,0.605,0.715,0.605,0.827c0,0.074-0.125,0.271-0.377,0.629
		c-0.258,0.342-0.537,0.715-0.84,1.12c-0.315,0.399-0.612,0.784-0.898,1.151C76.332,65.02,76.147,65.254,76.08,65.366
		 M65.011,76.544c0.697,0,1.344-0.139,1.955-0.39c0.623-0.261,1.166-0.624,1.617-1.077c0.456-0.458,0.816-0.997,1.08-1.605
		c0.263-0.624,0.389-1.274,0.389-1.968c0-0.698-0.126-1.354-0.389-1.979c-0.264-0.624-0.624-1.179-1.08-1.632
		c-0.451-0.453-0.994-0.811-1.617-1.088c-0.611-0.267-1.258-0.41-1.955-0.41c-1.416,0-2.629,0.501-3.611,1.487
		c-0.994,0.992-1.486,2.192-1.486,3.621c0,0.693,0.132,1.344,0.412,1.968c0.263,0.608,0.629,1.147,1.085,1.605
		c0.458,0.453,1.001,0.816,1.624,1.077C63.662,76.405,64.313,76.544,65.011,76.544 M99.104,87.748
		c-0.172,0.71-0.383,1.365-0.652,1.989c0.047,0.112,0.148,0.294,0.326,0.523c0.176,0.229,0.36,0.49,0.52,0.752
		c0.172,0.261,0.32,0.527,0.451,0.768c0.133,0.24,0.195,0.421,0.195,0.501s-0.178,0.299-0.521,0.661
		c-0.343,0.368-0.743,0.758-1.2,1.152s-0.902,0.773-1.314,1.125c-0.422,0.357-0.697,0.603-0.805,0.73l-0.225,0.123
		c-0.073,0-0.228-0.08-0.463-0.24c-0.232-0.17-0.473-0.347-0.713-0.549c-0.24-0.208-0.481-0.405-0.709-0.603
		c-0.24-0.203-0.389-0.331-0.469-0.405c-0.686,0.224-1.416,0.405-2.184,0.533c-0.033,0.112-0.125,0.319-0.25,0.603
		c-0.133,0.288-0.275,0.57-0.436,0.854c-0.16,0.277-0.309,0.538-0.462,0.768c-0.149,0.24-0.28,0.347-0.396,0.347
		c-0.113,0-0.434-0.059-0.977-0.208c-0.543-0.139-1.125-0.31-1.754-0.522c-0.618-0.208-1.184-0.416-1.681-0.65
		c-0.497-0.235-0.743-0.443-0.743-0.63c0-0.438,0.046-0.88,0.139-1.333c0.097-0.459,0.182-0.891,0.25-1.307
		c-0.296-0.219-0.561-0.47-0.788-0.73c-0.239-0.277-0.445-0.565-0.635-0.858c-0.428,0.037-0.852,0.063-1.274,0.09
		c-0.418,0.011-0.84,0.021-1.245,0.021h-0.405c-0.12,0-0.2-0.106-0.24-0.314c-0.04-0.154-0.109-0.479-0.224-0.992
		c-0.114-0.517-0.24-1.05-0.376-1.615c-0.145-0.582-0.264-1.094-0.35-1.562c-0.098-0.47-0.143-0.736-0.143-0.816
		c0-0.112,0.125-0.229,0.377-0.362c0.251-0.128,0.543-0.262,0.868-0.405c0.327-0.145,0.64-0.251,0.938-0.347
		c0.298-0.097,0.503-0.155,0.617-0.187c0.075-0.448,0.16-0.801,0.27-1.104c0.096-0.304,0.245-0.64,0.428-1.034
		c-0.067-0.075-0.188-0.24-0.36-0.48c-0.165-0.239-0.337-0.506-0.52-0.768c-0.172-0.262-0.332-0.528-0.463-0.784
		c-0.132-0.251-0.189-0.416-0.189-0.49c0-0.075,0.167-0.299,0.516-0.667c0.342-0.357,0.742-0.73,1.199-1.136
		c0.457-0.4,0.897-0.784,1.32-1.12c0.417-0.352,0.68-0.581,0.795-0.683l0.229-0.117c0.08,0,0.229,0.08,0.463,0.24
		c0.233,0.154,0.468,0.336,0.713,0.538c0.242,0.208,0.481,0.405,0.715,0.598c0.234,0.202,0.383,0.336,0.463,0.421
		c0.652-0.229,1.361-0.41,2.127-0.544c0.034-0.106,0.125-0.309,0.25-0.597c0.132-0.288,0.287-0.576,0.469-0.854
		c0.172-0.282,0.332-0.539,0.492-0.778c0.143-0.225,0.273-0.347,0.389-0.347c0.068,0,0.388,0.069,0.954,0.208
		c0.555,0.117,1.147,0.293,1.771,0.512c0.624,0.219,1.195,0.427,1.697,0.656c0.504,0.224,0.755,0.437,0.755,0.64
		c0,0.432-0.051,0.874-0.147,1.322c-0.109,0.442-0.195,0.886-0.275,1.312c0.297,0.218,0.572,0.469,0.806,0.746
		c0.234,0.267,0.44,0.555,0.634,0.848c0.458-0.031,0.92-0.063,1.378-0.079c0.462-0.027,0.909-0.027,1.332-0.027
		c0.147,0,0.319,0.24,0.503,0.741c0.194,0.496,0.354,1.057,0.492,1.69c0.143,0.641,0.262,1.243,0.353,1.813
		c0.093,0.565,0.138,0.938,0.138,1.104c0,0.111-0.125,0.229-0.377,0.362c-0.252,0.128-0.525,0.256-0.823,0.357
		c-0.298,0.117-0.605,0.24-0.915,0.357C99.424,87.631,99.219,87.711,99.104,87.748 M99.161,65.195
		c-0.252,0.672-0.537,1.259-0.875,1.766c0.041,0.08,0.121,0.224,0.229,0.464c0.109,0.229,0.24,0.479,0.384,0.757
		c0.131,0.272,0.251,0.518,0.349,0.747c0.085,0.213,0.131,0.357,0.131,0.395c0,0.106-0.206,0.325-0.623,0.65
		c-0.423,0.331-0.891,0.667-1.406,1.019c-0.514,0.331-0.994,0.646-1.439,0.917c-0.451,0.267-0.691,0.395-0.732,0.395
		c-0.067,0-0.199-0.079-0.393-0.261c-0.178-0.171-0.384-0.373-0.602-0.603c-0.211-0.219-0.405-0.438-0.57-0.656
		c-0.172-0.219-0.292-0.362-0.359-0.432c-0.27,0.069-0.533,0.128-0.807,0.171c-0.269,0.031-0.543,0.031-0.828,0h-0.389
		c-0.069,0.068-0.184,0.229-0.332,0.469c-0.154,0.219-0.308,0.464-0.492,0.72c-0.177,0.251-0.354,0.47-0.525,0.656
		c-0.159,0.187-0.285,0.282-0.359,0.282s-0.359-0.106-0.84-0.309c-0.48-0.203-0.994-0.443-1.52-0.721
		c-0.537-0.267-1.023-0.538-1.463-0.815c-0.435-0.262-0.664-0.453-0.664-0.565c0-0.032,0.035-0.176,0.086-0.405
		c0.059-0.24,0.131-0.49,0.229-0.741c0.098-0.262,0.178-0.518,0.252-0.768c0.074-0.251,0.131-0.422,0.166-0.491
		c-0.424-0.432-0.777-0.981-1.062-1.658c-0.99-0.032-1.692-0.086-2.104-0.139c-0.405-0.059-0.681-0.229-0.811-0.518
		c-0.126-0.293-0.172-0.784-0.138-1.472c0.041-0.688,0-1.707-0.114-3.045c0-0.123,0.12-0.229,0.354-0.347
		c0.229-0.112,0.508-0.197,0.822-0.277c0.32-0.075,0.63-0.128,0.943-0.166c0.304-0.042,0.514-0.074,0.623-0.117
		c0.193-0.607,0.48-1.21,0.869-1.781c-0.035-0.085-0.115-0.239-0.223-0.49c-0.108-0.256-0.23-0.518-0.35-0.778
		c-0.113-0.262-0.229-0.496-0.32-0.715c-0.096-0.214-0.136-0.357-0.136-0.427c0-0.123,0.192-0.325,0.593-0.635
		c0.406-0.314,0.864-0.64,1.377-0.986c0.51-0.336,0.995-0.65,1.447-0.907c0.445-0.261,0.708-0.389,0.777-0.389
		c0.08,0,0.199,0.08,0.365,0.24c0.172,0.176,0.359,0.378,0.577,0.613c0.218,0.229,0.405,0.453,0.577,0.655
		c0.16,0.208,0.285,0.342,0.36,0.422c0.263-0.08,0.53-0.128,0.794-0.171c0.273-0.043,0.549-0.043,0.834,0h0.389
		c0.033-0.069,0.138-0.229,0.309-0.464c0.166-0.229,0.342-0.464,0.515-0.71c0.177-0.25,0.343-0.464,0.491-0.661
		c0.148-0.187,0.264-0.293,0.336-0.293c0.075,0,0.36,0.106,0.842,0.325c0.49,0.208,1.006,0.453,1.553,0.726
		c0.555,0.277,1.053,0.527,1.487,0.794c0.435,0.262,0.663,0.454,0.663,0.565c0,0.075-0.035,0.214-0.121,0.427
		c-0.074,0.219-0.143,0.459-0.223,0.73c-0.068,0.277-0.148,0.533-0.234,0.773c-0.085,0.245-0.143,0.405-0.178,0.48
		c0.373,0.464,0.732,1.029,1.088,1.674c0.947,0.08,1.645,0.145,2.079,0.203c0.423,0.048,0.69,0.229,0.8,0.507
		c0.113,0.304,0.171,0.773,0.143,1.461c-0.018,0.688,0.018,1.68,0.086,2.986c0,0.112-0.115,0.225-0.348,0.353
		c-0.235,0.111-0.504,0.224-0.795,0.298c-0.309,0.064-0.605,0.128-0.915,0.166C99.481,65.121,99.269,65.163,99.161,65.195
		 M87.28,86.122c0,0.917,0.32,1.712,0.971,2.384c0.646,0.672,1.424,1.003,2.361,1.003c0.914,0,1.703-0.32,2.371-0.955
		c0.664-0.661,1-1.45,1-2.432c0-0.912-0.331-1.69-0.971-2.336c-0.652-0.646-1.44-0.966-2.4-0.966c-0.909,0-1.703,0.32-2.35,0.966
		C87.606,84.432,87.28,85.21,87.28,86.122 M88.657,62.619c0,0.875,0.286,1.605,0.881,2.197c0.582,0.598,1.303,0.88,2.143,0.88
		c0.875,0,1.617-0.282,2.211-0.88c0.596-0.592,0.893-1.301,0.893-2.144c0-0.869-0.287-1.616-0.881-2.208
		c-0.583-0.607-1.313-0.891-2.171-0.891c-0.88,0-1.612,0.283-2.194,0.891C88.943,61.057,88.657,61.777,88.657,62.619"/>
</g>
</svg>
