<?xml version="1.0" encoding="utf-8"?>
<!-- Generator: Adobe Illustrator 16.0.0, SVG Export Plug-In . SVG Version: 6.00 Build 0)  -->
<!DOCTYPE svg PUBLIC "-//W3C//DTD SVG 1.1//EN" "http://www.w3.org/Graphics/SVG/1.1/DTD/svg11.dtd">
<svg version="1.1" id="Ebene_1" xmlns="http://www.w3.org/2000/svg" xmlns:xlink="http://www.w3.org/1999/xlink" x="0px" y="0px"
	 width="150px" height="150px" viewBox="0 0 150 150" enable-background="new 0 0 150 150" xml:space="preserve">
<g>
	<path fill="#808080" d="M84.75,55.5l9.75,9.75L62,97.75L49,101l3.25-13L84.75,55.5z M88,65.25L84.75,62l-26,26L62,91.25L88,65.25z
		 M98.562,61.188L97.75,62L88,52.25l0.812-0.812c3.25-3.25,6.5-3.25,9.75,0S101.812,57.938,98.562,61.188z"/>
</g>
</svg>
