<?xml version="1.0" encoding="utf-8"?>
<!-- Generator: Adobe Illustrator 16.0.0, SVG Export Plug-In . SVG Version: 6.00 Build 0)  -->
<!DOCTYPE svg PUBLIC "-//W3C//DTD SVG 1.1//EN" "http://www.w3.org/Graphics/SVG/1.1/DTD/svg11.dtd">
<svg version="1.1" id="Ebene_1" xmlns="http://www.w3.org/2000/svg" xmlns:xlink="http://www.w3.org/1999/xlink" x="0px" y="0px"
	 width="150px" height="150px" viewBox="0 0 150 150" enable-background="new 0 0 150 150" xml:space="preserve">
<g>
	<path fill="#FFFFFF" d="M74.988,55.155c3.293,0,6.377,0.461,9.266,1.383c2.877,0.912,5.395,2.168,7.547,3.729
		c2.148,1.58,3.861,3.424,5.117,5.521c1.256,2.103,1.885,4.367,1.885,6.778c0,2.401-0.629,4.655-1.885,6.753
		c-1.256,2.103-2.969,3.946-5.117,5.527c-2.152,1.58-4.67,2.826-7.547,3.738c-2.889,0.912-5.973,1.362-9.266,1.362
		c-1.52,0-3.015-0.096-4.463-0.299c-2.918,2.306-6.322,3.891-10.213,4.772c-0.416,0.065-0.831,0.137-1.257,0.202
		c-0.415,0.081-0.871,0.152-1.353,0.213c-0.264,0.03-0.491-0.021-0.679-0.157c-0.192-0.142-0.319-0.344-0.39-0.607
		c-0.062-0.264-0.021-0.486,0.121-0.658c0.152-0.173,0.319-0.34,0.502-0.512c0.38-0.375,0.734-0.745,1.068-1.104
		c0.335-0.35,0.634-0.775,0.907-1.267c0.269-0.486,0.521-1.059,0.744-1.723c0.224-0.669,0.416-1.464,0.588-2.411
		c-2.883-1.621-5.167-3.622-6.849-5.993c-1.678-2.381-2.519-4.99-2.519-7.837c0-2.401,0.629-4.655,1.89-6.769
		c1.257-2.107,2.959-3.951,5.117-5.531c2.147-1.561,4.66-2.816,7.532-3.729C68.61,55.616,71.695,55.155,74.988,55.155"/>
</g>
</svg>
