<?xml version="1.0" encoding="utf-8"?>
<!-- Generator: Adobe Illustrator 16.0.0, SVG Export Plug-In . SVG Version: 6.00 Build 0)  -->
<!DOCTYPE svg PUBLIC "-//W3C//DTD SVG 1.1//EN" "http://www.w3.org/Graphics/SVG/1.1/DTD/svg11.dtd">
<svg version="1.1" id="Ebene_1" xmlns="http://www.w3.org/2000/svg" xmlns:xlink="http://www.w3.org/1999/xlink" x="0px" y="0px"
	 width="150px" height="150px" viewBox="0 0 150 150" enable-background="new 0 0 150 150" xml:space="preserve">
<g>
	<g>
		<path fill="#808080" d="M89.93,69.268c0,1.953-0.508,3.795-1.525,5.527c-1.012,1.736-2.398,3.245-4.152,4.524
			c-1.76,1.285-3.812,2.304-6.182,3.048c-2.355,0.756-4.883,1.128-7.586,1.128c-0.611,0-1.222-0.027-1.836-0.079
			c-0.598-0.048-1.2-0.1-1.783-0.172c-2.447,1.878-5.247,3.181-8.392,3.87c-0.336,0.073-0.675,0.137-1.019,0.188
			c-0.342,0.063-0.704,0.124-1.092,0.193c-0.193,0.03-0.372-0.018-0.535-0.166c-0.158-0.142-0.272-0.29-0.333-0.466v-0.039
			c-0.069-0.206-0.04-0.369,0.073-0.496c0.111-0.118,0.266-0.269,0.447-0.438c0.305-0.296,0.592-0.596,0.86-0.907
			c0.281-0.312,0.527-0.662,0.741-1.049c0.215-0.394,0.418-0.859,0.611-1.388c0.193-0.536,0.357-1.188,0.49-1.984
			c-2.355-1.294-4.218-2.921-5.598-4.877c-1.388-1.959-2.077-4.094-2.077-6.417c0-1.98,0.516-3.834,1.536-5.555
			c1.024-1.724,2.416-3.229,4.179-4.515c1.754-1.273,3.804-2.298,6.159-3.048c2.348-0.75,4.872-1.128,7.566-1.128
			c2.703,0,5.231,0.378,7.586,1.128c2.369,0.75,4.422,1.774,6.182,3.048c1.754,1.285,3.141,2.791,4.152,4.515
			C89.422,65.434,89.93,67.288,89.93,69.268 M98.957,76.742c0,2.316-0.695,4.464-2.072,6.42c-1.385,1.96-3.254,3.58-5.602,4.881
			c0.139,0.78,0.289,1.442,0.475,1.972c0.182,0.541,0.398,0.988,0.641,1.396c0.244,0.388,0.488,0.735,0.75,1.04
			c0.256,0.312,0.535,0.614,0.832,0.92c0.172,0.163,0.316,0.314,0.438,0.459c0.127,0.143,0.154,0.294,0.088,0.463v0.052
			c-0.031,0.193-0.127,0.351-0.312,0.483c-0.172,0.127-0.355,0.17-0.562,0.14c-0.375-0.066-0.744-0.134-1.084-0.19
			c-0.342-0.055-0.678-0.112-1.014-0.188c-1.604-0.333-3.1-0.832-4.496-1.5c-1.404-0.662-2.703-1.455-3.898-2.371
			c-0.584,0.061-1.182,0.121-1.793,0.173c-0.604,0.051-1.213,0.081-1.836,0.081c-2.346,0-4.557-0.299-6.62-0.877
			c-2.067-0.586-3.945-1.369-5.621-2.355c0.098-0.061,0.209-0.133,0.33-0.196c0.126-0.066,0.245-0.133,0.341-0.199
			c0.854,0.097,1.699,0.15,2.544,0.15c3.283,0,6.366-0.469,9.225-1.415c2.863-0.949,5.346-2.229,7.447-3.87
			c2.105-1.648,3.752-3.574,4.963-5.797c1.205-2.204,1.82-4.589,1.82-7.145c0-0.687-0.057-1.37-0.154-2.096
			c1.598,1.301,2.861,2.761,3.783,4.37C98.498,73.16,98.957,74.892,98.957,76.742"/>
	</g>
</g>
</svg>
