<?xml version="1.0" encoding="utf-8"?>
<!-- Generator: Adobe Illustrator 16.0.0, SVG Export Plug-In . SVG Version: 6.00 Build 0)  -->
<!DOCTYPE svg PUBLIC "-//W3C//DTD SVG 1.1//EN" "http://www.w3.org/Graphics/SVG/1.1/DTD/svg11.dtd">
<svg version="1.1" id="Ebene_1" xmlns="http://www.w3.org/2000/svg" xmlns:xlink="http://www.w3.org/1999/xlink" x="0px" y="0px"
	 width="150px" height="150px" viewBox="0 0 150 150" enable-background="new 0 0 150 150" xml:space="preserve">
<g>
	<g>
		<path fill="#FFFFFF" d="M64.5,93.5c0,1.104-0.896,2-2,2h-4c-1.104,0-2-0.896-2-2v-43c0-1.104,0.896-2,2-2h4c1.104,0,2,0.896,2,2
			V93.5z"/>
	</g>
	<g>
		<path fill="#FFFFFF" d="M59.5,94.5c0,1.104-0.896,2-2,2h-12c-1.104,0-2-0.896-2-2v-4c0-1.104,0.896-2,2-2h12c1.104,0,2,0.896,2,2
			V94.5z"/>
	</g>
	<rect x="68.5" y="56.5" fill="#FFFFFF" width="38" height="40"/>
	<circle fill="#FFFFFF" cx="76.658" cy="94.566" r="7.522"/>
	<circle fill="#FFFFFF" cx="99.803" cy="94.566" r="7.522"/>
</g>
</svg>
