<?xml version="1.0" encoding="utf-8"?>
<!-- Generator: Adobe Illustrator 16.0.0, SVG Export Plug-In . SVG Version: 6.00 Build 0)  -->
<!DOCTYPE svg PUBLIC "-//W3C//DTD SVG 1.1//EN" "http://www.w3.org/Graphics/SVG/1.1/DTD/svg11.dtd">
<svg version="1.1" id="Ebene_1" xmlns="http://www.w3.org/2000/svg" xmlns:xlink="http://www.w3.org/1999/xlink" x="0px" y="0px"
	 width="150px" height="150px" viewBox="0 0 150 150" enable-background="new 0 0 150 150" xml:space="preserve">
<g>
	<path fill="#FFFFFF" d="M77.582,49.427c0.734,0,1.521,0.177,2.363,0.543c0.844,0.368,1.516,0.789,1.998,1.278l11.693,11.686
		c0.51,0.516,0.943,1.183,1.297,2.025c0.354,0.829,0.531,1.617,0.531,2.337v30.683c0,0.733-0.246,1.358-0.748,1.847
		c-0.496,0.503-1.086,0.748-1.779,0.748H57.131c-0.733,0-1.352-0.245-1.848-0.748c-0.495-0.488-0.748-1.113-0.748-1.847V51.941
		c0-0.68,0.253-1.278,0.748-1.781c0.496-0.489,1.114-0.733,1.848-0.733H77.582z M90.342,72.392H75.054
		c-0.692,0-1.277-0.245-1.767-0.748c-0.489-0.488-0.733-1.114-0.733-1.847V54.55H59.659v40.901h30.683V72.392z M63.463,76.889
		h23.087v3.846H63.463V76.889z M63.463,85.857h23.087v3.872H63.463V85.857z M90.342,67.296c0-0.082-0.043-0.231-0.137-0.436
		c-0.094-0.217-0.162-0.34-0.203-0.395L78.35,54.875c-0.041-0.081-0.156-0.148-0.318-0.188c-0.164-0.042-0.293-0.097-0.383-0.137
		v12.746H90.342z"/>
</g>
</svg>
