<?xml version="1.0" encoding="utf-8"?>
<!-- Generator: Adobe Illustrator 16.0.0, SVG Export Plug-In . SVG Version: 6.00 Build 0)  -->
<!DOCTYPE svg PUBLIC "-//W3C//DTD SVG 1.1//EN" "http://www.w3.org/Graphics/SVG/1.1/DTD/svg11.dtd">
<svg version="1.1" id="Ebene_1" xmlns="http://www.w3.org/2000/svg" xmlns:xlink="http://www.w3.org/1999/xlink" x="0px" y="0px"
	 width="150px" height="150px" viewBox="0 0 150 150" enable-background="new 0 0 150 150" xml:space="preserve">
<g>
	<rect x="43.388" y="54.086" fill="#1D1D1B" width="63.225" height="13.946"/>
	<rect x="43.388" y="68.032" fill="#E30613" width="63.225" height="13.944"/>
	<rect x="43.388" y="81.977" fill="#FFDD00" width="63.225" height="13.943"/>
	<g>
		
			<rect x="43.386" y="54.081" fill-rule="evenodd" clip-rule="evenodd" fill="none" stroke="#000000" stroke-width="0.52" width="63.227" height="41.833"/>
	</g>
</g>
</svg>
