<?xml version="1.0" encoding="utf-8"?>
<!-- Generator: Adobe Illustrator 16.0.0, SVG Export Plug-In . SVG Version: 6.00 Build 0)  -->
<!DOCTYPE svg PUBLIC "-//W3C//DTD SVG 1.1//EN" "http://www.w3.org/Graphics/SVG/1.1/DTD/svg11.dtd">
<svg version="1.1" id="Ebene_1" xmlns="http://www.w3.org/2000/svg" xmlns:xlink="http://www.w3.org/1999/xlink" x="0px" y="0px"
	 width="150px" height="150px" viewBox="0 0 150 150" enable-background="new 0 0 150 150" xml:space="preserve">
<g>
	<g>
		<rect x="43.386" y="54.087" fill="#FFFFFF" stroke="#000000" stroke-width="0.52" width="63.229" height="41.837"/>
	</g>
	<g>
		<rect x="43.552" y="54.076" fill="#005CA9" width="21.335" height="41.844"/>
		<rect x="85.265" y="54.076" fill="#E30613" width="21.35" height="41.844"/>
	</g>
</g>
</svg>
