<?xml version="1.0" encoding="utf-8"?>
<!-- Generator: Adobe Illustrator 16.0.0, SVG Export Plug-In . SVG Version: 6.00 Build 0)  -->
<!DOCTYPE svg PUBLIC "-//W3C//DTD SVG 1.1//EN" "http://www.w3.org/Graphics/SVG/1.1/DTD/svg11.dtd">
<svg version="1.1" id="Ebene_1" xmlns="http://www.w3.org/2000/svg" xmlns:xlink="http://www.w3.org/1999/xlink" x="0px" y="0px"
	 width="150px" height="150px" viewBox="0 0 150 150" enable-background="new 0 0 150 150" xml:space="preserve">
<g>
	<path fill="#808080" d="M90.576,73.975c0.813,0.358,1.432,0.766,1.855,1.221c0.423,0.456,0.732,1.172,0.928,2.148
		s0.309,1.791,0.342,2.441c0.032,0.651,0.049,1.66,0.049,3.027v15.625h-37.5V82.812c0-1.367,0.016-2.376,0.049-3.027
		c0.032-0.65,0.146-1.465,0.342-2.441s0.504-1.692,0.928-2.148c0.423-0.455,1.041-0.862,1.855-1.221
		c0.813-0.357,1.839-0.537,3.076-0.537h1.758l9.668,19.727L70.312,75L75,70.312L79.688,75l-3.613,18.164l9.668-19.727H87.5
		C88.736,73.438,89.762,73.618,90.576,73.975z M75,70.312c2.604,0,4.817-0.911,6.641-2.734c1.822-1.822,2.734-4.036,2.734-6.641
		c0-2.603-0.912-4.817-2.734-6.641c-1.823-1.822-4.037-2.734-6.641-2.734c-2.604,0-4.818,0.913-6.641,2.734
		c-1.823,1.823-2.734,4.038-2.734,6.641c0,2.604,0.911,4.819,2.734,6.641C70.182,69.401,72.396,70.312,75,70.312z"/>
</g>
</svg>
