<?xml version="1.0" encoding="utf-8"?>
<!-- Generator: Adobe Illustrator 16.0.0, SVG Export Plug-In . SVG Version: 6.00 Build 0)  -->
<!DOCTYPE svg PUBLIC "-//W3C//DTD SVG 1.1//EN" "http://www.w3.org/Graphics/SVG/1.1/DTD/svg11.dtd">
<svg version="1.1" id="Ebene_1" xmlns="http://www.w3.org/2000/svg" xmlns:xlink="http://www.w3.org/1999/xlink" x="0px" y="0px"
	 width="150px" height="150px" viewBox="0 0 150 150" enable-background="new 0 0 150 150" xml:space="preserve">
<g>
	<path fill="#FFFFFF" d="M102.525,66.075c0,1.369-0.494,2.791-1.478,4.24c-0.989,1.475-2.311,2.857-3.972,4.18
		c-1.662,1.315-3.615,2.472-5.861,3.475c-2.254,0.99-4.666,1.701-7.252,2.113c-1.109,0.219-2.094,0.664-2.963,1.35
		c-0.871,0.685-1.311,1.449-1.311,2.299c0,0.765,0.193,1.322,0.572,1.675c0.387,0.359,0.806,0.698,1.276,1.017
		c0.465,0.319,0.904,0.65,1.302,1.017c0.399,0.372,0.638,0.938,0.73,1.701c0.088,0.499,0.068,1.017-0.064,1.536
		c-0.08,0.305,0.173,0.557,0.771,0.756c0.598,0.207,1.326,0.413,2.191,0.605c0.871,0.192,1.755,0.438,2.671,0.731
		c0.919,0.292,1.607,0.664,2.087,1.122c0.252,0.227,0.479,0.645,0.638,1.29c0.159,0.651,0.267,1.343,0.306,2.1
		c0.055,0.718-0.02,1.356-0.187,1.913c-0.179,0.546-0.505,0.825-0.95,0.825h-32.09c-0.426,0-0.742-0.279-0.93-0.825
		c-0.188-0.557-0.252-1.195-0.213-1.913c0.049-0.757,0.158-1.448,0.312-2.1c0.166-0.646,0.379-1.063,0.646-1.29
		c0.49-0.432,1.182-0.803,2.072-1.109c0.891-0.299,1.766-0.552,2.625-0.744c0.856-0.192,1.6-0.393,2.231-0.585
		s0.899-0.458,0.806-0.776c-0.08-0.312-0.119-0.592-0.119-0.838v-0.698c0.039-0.764,0.271-1.329,0.689-1.701
		c0.434-0.366,0.89-0.697,1.383-1.017c0.484-0.318,0.904-0.657,1.275-1.017c0.372-0.353,0.559-0.91,0.559-1.675
		c0-0.85-0.425-1.614-1.289-2.299c-0.852-0.686-1.875-1.131-3.043-1.35c-2.54-0.425-4.93-1.156-7.164-2.166
		c-2.246-1.01-4.199-2.159-5.875-3.455c-1.662-1.289-2.992-2.672-3.973-4.146c-0.973-1.449-1.463-2.871-1.463-4.24v-6.094
		c0-0.724,0.252-1.309,0.736-1.774c0.485-0.465,1.09-0.691,1.815-0.691h10.513c-0.039-0.266-0.067-0.531-0.067-0.823v-0.778v-0.132
		c0-1.157,0.054-2.106,0.153-2.871c0.094-0.751,0.261-1.35,0.498-1.774c0.238-0.412,0.585-0.718,1.039-0.897
		c0.436-0.173,1.043-0.259,1.791-0.259h22.09c0.718,0,1.316,0.086,1.781,0.259c0.465,0.18,0.811,0.485,1.049,0.897
		c0.256,0.425,0.414,1.023,0.508,1.774c0.079,0.765,0.119,1.714,0.119,2.871v0.83c0,0.292-0.029,0.598-0.068,0.903h10.553
		c0.727,0,1.33,0.227,1.814,0.691c0.485,0.466,0.727,1.051,0.727,1.774V66.075z M63.502,74.415
		c-0.538-1.741-1.023-3.642-1.448-5.715c-0.425-2.066-0.782-4.134-1.089-6.18H52.49v3.555c0,0.433,0.261,1.017,0.771,1.761
		c0.498,0.737,1.244,1.502,2.199,2.293c0.951,0.784,2.107,1.581,3.471,2.333C60.287,73.22,61.807,73.87,63.502,74.415
		 M97.512,62.521H88.98c-0.258,2.046-0.604,4.113-1.029,6.18c-0.419,2.073-0.904,3.974-1.457,5.715
		c1.701-0.545,3.229-1.195,4.588-1.953c1.355-0.752,2.512-1.549,3.467-2.333c0.959-0.791,1.688-1.556,2.207-2.293
		c0.504-0.744,0.756-1.328,0.756-1.761V62.521z"/>
</g>
</svg>
