<?xml version="1.0" encoding="utf-8"?>
<!-- Generator: Adobe Illustrator 16.0.0, SVG Export Plug-In . SVG Version: 6.00 Build 0)  -->
<!DOCTYPE svg PUBLIC "-//W3C//DTD SVG 1.1//EN" "http://www.w3.org/Graphics/SVG/1.1/DTD/svg11.dtd">
<svg version="1.1" id="Ebene_1" xmlns="http://www.w3.org/2000/svg" xmlns:xlink="http://www.w3.org/1999/xlink" x="0px" y="0px"
	 width="150px" height="150px" viewBox="0 0 150 150" enable-background="new 0 0 150 150" xml:space="preserve">
<g>
	<path fill="#808080" d="M71.677,55.261c0.507,0.508,0.761,1.108,0.761,1.802v12.812c0,0.694-0.254,1.295-0.761,1.802
		c-0.508,0.508-1.108,0.761-1.802,0.761H57.062c-0.694,0-1.295-0.253-1.802-0.761c-0.508-0.507-0.761-1.107-0.761-1.802V57.062
		c0-0.693,0.253-1.294,0.761-1.802c0.507-0.507,1.107-0.761,1.802-0.761h12.812C70.568,54.5,71.169,54.754,71.677,55.261z
		 M71.677,78.323c0.507,0.508,0.761,1.108,0.761,1.802v12.812c0,0.693-0.254,1.294-0.761,1.802
		c-0.508,0.507-1.108,0.761-1.802,0.761H57.062c-0.694,0-1.295-0.254-1.802-0.761c-0.508-0.508-0.761-1.108-0.761-1.802V80.125
		c0-0.693,0.253-1.294,0.761-1.802c0.507-0.507,1.107-0.761,1.802-0.761h12.812C70.568,77.562,71.169,77.816,71.677,78.323z
		 M69.875,62.188H57.062v2.562h12.812V62.188z M69.875,85.25H64.75v-5.125h-2.562v5.125h-5.125v2.562h5.125v5.125h2.562v-5.125
		h5.125V85.25z M94.739,55.261c0.507,0.508,0.761,1.108,0.761,1.802v35.875c0,0.693-0.254,1.294-0.761,1.802
		c-0.508,0.507-1.108,0.761-1.802,0.761H80.125c-0.694,0-1.295-0.254-1.802-0.761c-0.508-0.508-0.761-1.108-0.761-1.802V57.062
		c0-0.693,0.253-1.294,0.761-1.802c0.507-0.507,1.107-0.761,1.802-0.761h12.812C93.631,54.5,94.231,54.754,94.739,55.261z
		 M92.938,69.875H80.125v2.562h12.812V69.875z M92.938,77.562H80.125v2.562h12.812V77.562z"/>
</g>
</svg>
