<?xml version="1.0" encoding="utf-8"?>
<!-- Generator: Adobe Illustrator 16.0.0, SVG Export Plug-In . SVG Version: 6.00 Build 0)  -->
<!DOCTYPE svg PUBLIC "-//W3C//DTD SVG 1.1//EN" "http://www.w3.org/Graphics/SVG/1.1/DTD/svg11.dtd">
<svg version="1.1" id="Ebene_1" xmlns="http://www.w3.org/2000/svg" xmlns:xlink="http://www.w3.org/1999/xlink" x="0px" y="0px"
	 width="150px" height="150px" viewBox="0 0 150 150" enable-background="new 0 0 150 150" xml:space="preserve">
<g>
	<path fill="#808080" d="M71.906,79.641l-13.75,13.75C54.719,89.438,53,84.854,53,79.641c0-5.213,1.719-9.797,5.156-13.75
		L71.906,79.641z M75,75L59.188,59.273C63.828,55.436,69.099,53.344,75,53V75z M80.5,58.758c4.697,0.688,8.622,2.808,11.773,6.359
		C95.424,68.67,97,72.852,97,77.664c0,5.328-1.891,9.883-5.672,13.664S82.992,97,77.664,97c-4.125,0-7.936-1.289-11.43-3.867
		L80.5,78.867V58.758z"/>
</g>
</svg>
