<?xml version="1.0" encoding="utf-8"?>
<!-- Generator: Adobe Illustrator 16.0.0, SVG Export Plug-In . SVG Version: 6.00 Build 0)  -->
<!DOCTYPE svg PUBLIC "-//W3C//DTD SVG 1.1//EN" "http://www.w3.org/Graphics/SVG/1.1/DTD/svg11.dtd">
<svg version="1.1" id="Ebene_1" xmlns="http://www.w3.org/2000/svg" xmlns:xlink="http://www.w3.org/1999/xlink" x="0px" y="0px"
	 width="150px" height="150px" viewBox="0 0 150 150" enable-background="new 0 0 150 150" xml:space="preserve">
<g>
	<path fill="#808080" d="M97.517,64.176c0.577,0.58,0.868,1.294,0.868,2.146V95.37c0,0.853-0.291,1.566-0.868,2.146
		c-0.58,0.578-1.295,0.868-2.146,0.868h-7.674c-0.73,0-1.34-0.106-1.827-0.319c-0.488-0.215-0.821-0.64-1.004-1.279
		c-0.183-0.639,0.091-1.506,0.822-2.604c0.548-0.973,0.943-1.887,1.188-2.74c0.241-0.852,0.304-1.72,0.183-2.604
		c-0.123-0.881-0.672-1.566-1.645-2.055c-0.976-0.486-2.375-0.73-4.202-0.73s-3.241,0.244-4.247,0.73
		c-1.005,0.488-1.553,1.174-1.644,2.055c-0.093,0.884-0.017,1.752,0.228,2.604c0.242,0.854,0.64,1.768,1.188,2.74
		c0.669,1.098,0.927,1.965,0.776,2.604c-0.153,0.64-0.474,1.064-0.96,1.279c-0.488,0.213-1.096,0.319-1.825,0.319h-8.405
		c-0.854,0-1.568-0.29-2.146-0.868c-0.58-0.58-0.867-1.294-0.867-2.146v-6.668c0-0.183,0.014-0.471,0.045-0.867
		c0.03-0.396,0.03-0.67,0-0.822c-0.031-0.15-0.062-0.35-0.09-0.594c-0.033-0.242-0.109-0.396-0.229-0.457
		c-0.124-0.06-0.292-0.105-0.503-0.137c-0.214-0.029-0.503,0.031-0.868,0.182c-0.365,0.154-0.763,0.353-1.188,0.594
		c-0.976,0.549-1.936,0.945-2.877,1.188c-0.946,0.244-1.89,0.32-2.833,0.229c-0.945-0.091-1.705-0.639-2.283-1.645
		c-0.58-1.004-0.867-2.42-0.867-4.246c0-1.828,0.287-3.229,0.867-4.203c0.578-0.973,1.338-1.521,2.283-1.644
		c0.943-0.121,1.887-0.046,2.833,0.228c0.941,0.275,1.901,0.686,2.877,1.234c0.425,0.243,0.822,0.442,1.188,0.594
		c0.365,0.152,0.654,0.197,0.868,0.136c0.211-0.059,0.379-0.104,0.503-0.136c0.119-0.031,0.195-0.184,0.229-0.458
		c0.027-0.273,0.059-0.47,0.09-0.593c0.03-0.121,0.03-0.379,0-0.777c-0.031-0.395-0.045-0.686-0.045-0.867v-9.317
		c0-0.853,0.287-1.566,0.867-2.146c0.578-0.577,1.292-0.868,2.146-0.868h8.405c0.606,0,1.079-0.029,1.415-0.092
		c0.332-0.059,0.669-0.196,1.006-0.41c0.334-0.213,0.47-0.562,0.41-1.051c-0.062-0.486-0.336-1.156-0.822-2.01
		c-0.548-0.973-0.945-1.887-1.188-2.74c-0.244-0.853-0.32-1.704-0.228-2.559c0.091-0.852,0.639-1.536,1.644-2.055
		c1.006-0.516,2.42-0.776,4.247-0.776s3.227,0.261,4.202,0.776c0.973,0.519,1.521,1.203,1.645,2.055
		c0.121,0.854,0.059,1.706-0.183,2.559c-0.244,0.854-0.64,1.768-1.188,2.74c-0.489,0.854-0.763,1.523-0.822,2.01
		c-0.062,0.488,0.06,0.838,0.366,1.051c0.303,0.214,0.638,0.352,1.004,0.41c0.365,0.062,0.852,0.092,1.461,0.092h7.674
		C96.222,63.308,96.937,63.599,97.517,64.176z"/>
</g>
</svg>
