<?xml version="1.0" encoding="utf-8"?>
<!-- Generator: Adobe Illustrator 16.0.0, SVG Export Plug-In . SVG Version: 6.00 Build 0)  -->
<!DOCTYPE svg PUBLIC "-//W3C//DTD SVG 1.1//EN" "http://www.w3.org/Graphics/SVG/1.1/DTD/svg11.dtd">
<svg version="1.1" id="Ebene_1" xmlns="http://www.w3.org/2000/svg" xmlns:xlink="http://www.w3.org/1999/xlink" x="0px" y="0px"
	 width="150px" height="150px" viewBox="0 0 150 150" enable-background="new 0 0 150 150" xml:space="preserve">
<g>
	<g>
		<path fill="#808080" d="M79.686,57.032c1.07-1.097,1.969-1.508,2.734-1.205c0.746,0.3,1.137,1.229,1.137,2.783v32.778
			c0,1.551-0.383,2.482-1.123,2.785c-0.748,0.301-1.666-0.098-2.748-1.193L69.164,82.429H55.562c-0.344,0-0.641-0.127-0.893-0.363
			c-0.244-0.232-0.369-0.535-0.369-0.912V68.857c0-0.356,0.125-0.652,0.369-0.905c0.252-0.245,0.549-0.37,0.893-0.37h13.602
			L79.686,57.032z M88.795,61.724c0.627-0.351,1.275-0.424,1.957-0.259c0.68,0.171,1.207,0.568,1.564,1.194
			c2.26,3.94,3.383,8.043,3.383,12.343c0,4.335-1.123,8.451-3.383,12.333c-0.488,0.885-1.242,1.33-2.26,1.33
			c-0.43,0-0.846-0.125-1.262-0.385c-0.627-0.35-1.037-0.863-1.236-1.551c-0.191-0.693-0.119-1.355,0.238-1.982
			c1.805-3.139,2.715-6.383,2.715-9.746c0-3.368-0.91-6.619-2.715-9.752c-0.357-0.623-0.43-1.282-0.238-1.981
			C87.758,62.587,88.168,62.066,88.795,61.724"/>
	</g>
</g>
</svg>
